﻿[
	{
		"_id": "co-50",
		"_parentId": "course",
		"_type": "page",
		"_classes": "zh_cn",
		"height":"570",
		"title": "數位行銷生態",
		"displayTitle": "數位行銷生態",
		"pageBody": "瞭解數位行銷生態，以及行動浪潮如何改變用戶的行為。",
		"body": "瞭解數位行銷生態，以及行動浪潮如何改變用戶的行為。",
		"_graphic": {
			"src": "course/en/images/contentObjects/landing_01.png",
			"alt": "總覽"
		},
		"linkText": "查看",
		"durationLabel": "時間：",
		"duration": "4 分鐘",
		"_pageLevelProgress": {
			"_isEnabled": true
		}
	},
    {
		"_id": "co-100",
		"_parentId": "course",
		"_type": "page",
		"_classes": "zh_cn",
		"height":"570",
		"title": "企業決策者的相關分析數據",
		"displayTitle": "企業決策者的相關分析數據",
		"pageBody": "透過分析數據，瞭解企業決策者的行動裝置使用習慣，以及他們如何做出購買決策。",
		"body": "透過分析數據，瞭解企業決策者的行動裝置使用習慣，以及他們如何做出購買決策。",
		"_graphic": {
			"src": "course/en/images/contentObjects/landing_03.png",
			"alt": "總覽"
		},
		"linkText": "查看",
		"durationLabel": "時間：",
		"duration": "4 分鐘",
		"_pageLevelProgress": {
			"_isEnabled": true
		}
	},
    {
		"_id": "co-150",
		"_parentId": "course",
		"_type": "page",
		"_classes": "zh_cn",
		"height":"570",
		"title": "Facebook 如何協助您的商家掌握致勝關鍵",
		"displayTitle": "Facebook 如何協助您的商家掌握致勝關鍵",
		"pageBody": "瞭解如何藉由 Facebook 多樣化的廣告解決方案，在不同消費階段打動潛在客戶與既有顧客。",
		"body": "瞭解如何藉由 Facebook 多樣化的廣告解決方案，在不同消費階段打動潛在客戶與既有顧客。",
		"_graphic": {
			"src": "course/en/images/contentObjects/landing_02.png",
			"alt": "總覽"
		},
		"linkText": "查看",
		"durationLabel": "時間：",
		"duration": "4 分鐘",
		"_pageLevelProgress": {
			"_isEnabled": true
		}
	},
    {
		"_id": "co-200",
		"_parentId": "course",
		"_type": "page",
		"_classes": "zh_cn",
		"height":"570",
		"title": "效果強大的目標設定功能",
		"displayTitle": "效果強大的目標設定功能",
		"pageBody": "瞭解如何運用我們強大的目標設定解決方案，在 Facebook 找出並觸及理想客群。",
		"body": "瞭解如何運用我們強大的目標設定解決方案，在 Facebook 找出並觸及理想客群。",
		"_graphic": {
			"src": "course/en/images/contentObjects/landing_04.png",
			"alt": "總覽"
		},
		"linkText": "查看",
		"durationLabel": "時間：",
		"duration": "4 分鐘",
		"_pageLevelProgress": {
			"_isEnabled": true
		}
	},
    {
		"_id": "co-250",
		"_parentId": "course",
		"_type": "page",
		"_classes": "zh_cn",
		"height":"570",
		"title": "策略應用",
		"displayTitle": "策略應用",
		"pageBody": "瞭解解決方案如何協助您達成業務目標。",
		"body": "瞭解解決方案如何協助您達成業務目標。",
		"_graphic": {
			"src": "course/en/images/contentObjects/landing_05.png",
			"alt": "總覽"
		},
		"linkText": "查看",
		"durationLabel": "時間：",
		"duration": "4 分鐘",
		"_pageLevelProgress": {
			"_isEnabled": true
		}
	},
    {
		"_id": "co-300",
		"_parentId": "course",
		"_type": "page",
		"_classes": "zh_cn",
		"height":"570",
		"title": "成效衡量",
		"displayTitle": "成效衡量",
		"pageBody": "衡量行銷活動的成效，從中獲得關鍵資訊，供日後擬定行銷策略時參考。",
		"body": "衡量行銷活動的成效，從中獲得關鍵資訊，供日後擬定行銷策略時參考。",
		"_graphic": {
			"src": "course/en/images/contentObjects/landing_06.png",
			"alt": "總覽"
		},
		"linkText": "查看",
		"durationLabel": "時間：",
		"duration": "4 分鐘",
		"_pageLevelProgress": {
			"_isEnabled": true
		}
	},
    {
		"_id": "co-350",
		"_parentId": "course",
		"_type": "page",
		"_classes": "zh_cn",
		"height":"570",
		"title": "成功案例",
		"displayTitle": "成功案例",
		"pageBody": "瞭解其他 B2B 行銷人員的成功祕訣。",
		"body": "瞭解其他 B2B 行銷人員的成功祕訣。",
		"_graphic": {
			"src": "course/en/images/contentObjects/landing_07.png",
			"alt": "總覽"
		},
		"linkText": "查看",
		"durationLabel": "時間：",
		"duration": "4 分鐘",
		"_pageLevelProgress": {
			"_isEnabled": true
		}
	}
]
